<svg width="23" height="18" viewBox="0 0 23 18" fill="none" xmlns="http://www.w3.org/2000/svg">
<path d="M22.3145 7.98256L3.82615 7.98256L11.8993 0.737929C12.0284 0.621157 11.9501 0.404295 11.7795 0.404295L9.73927 0.404295C9.64936 0.404295 9.56406 0.437659 9.49721 0.497236L0.785442 8.31143C0.705653 8.38293 0.641662 8.47132 0.597805 8.57062C0.553949 8.66991 0.531251 8.77779 0.531251 8.88695C0.531252 8.99611 0.553949 9.10399 0.597805 9.20328C0.641662 9.30258 0.705653 9.39097 0.785443 9.46247L9.54793 17.3243C9.58251 17.3553 9.624 17.372 9.6678 17.372L11.7772 17.372C11.9478 17.372 12.0261 17.1527 11.897 17.0384L3.82615 9.79372L22.3145 9.79372C22.4159 9.79372 22.4989 9.70792 22.4989 9.60307L22.4989 8.17321C22.4989 8.06835 22.4159 7.98256 22.3145 7.98256Z" fill="#560027"/>
</svg>
